Repaso módulo 1
…
Import data

gdp <- tidyquant::tq_get(
  x    = "NGDPRNSAXDCMXQ",
  get  = "economic.data",
  from = "1997-01-01"
)

Registered S3 method overwritten by 'quantmod':
  method            from
  as.zoo.data.frame zoo 

gdp

# A tibble: 111 × 3
   symbol         date          price
   <chr>          <date>        <dbl>
 1 NGDPRNSAXDCMXQ 1997-01-01 3702398.
 2 NGDPRNSAXDCMXQ 1997-04-01 3896084 
 3 NGDPRNSAXDCMXQ 1997-07-01 3906063 
 4 NGDPRNSAXDCMXQ 1997-10-01 4038358.
 5 NGDPRNSAXDCMXQ 1998-01-01 4084304.
 6 NGDPRNSAXDCMXQ 1998-04-01 4134900.
 7 NGDPRNSAXDCMXQ 1998-07-01 4138200.
 8 NGDPRNSAXDCMXQ 1998-10-01 4146842.
 9 NGDPRNSAXDCMXQ 1999-01-01 4176243.
10 NGDPRNSAXDCMXQ 1999-04-01 4232280.
# ℹ 101 more rows

gdp <- gdp |> 
  mutate(date = yearquarter(date)) |> 
  as_tsibble(
    index = date,
    key   = symbol
  )

gdp

# A tsibble: 111 x 3 [1Q]
# Key:       symbol [1]
   symbol            date    price
   <chr>            <qtr>    <dbl>
 1 NGDPRNSAXDCMXQ 1997 Q1 3702398.
 2 NGDPRNSAXDCMXQ 1997 Q2 3896084 
 3 NGDPRNSAXDCMXQ 1997 Q3 3906063 
 4 NGDPRNSAXDCMXQ 1997 Q4 4038358.
 5 NGDPRNSAXDCMXQ 1998 Q1 4084304.
 6 NGDPRNSAXDCMXQ 1998 Q2 4134900.
 7 NGDPRNSAXDCMXQ 1998 Q3 4138200.
 8 NGDPRNSAXDCMXQ 1998 Q4 4146842.
 9 NGDPRNSAXDCMXQ 1999 Q1 4176243.
10 NGDPRNSAXDCMXQ 1999 Q2 4232280.
# ℹ 101 more rows

Train/Test Split

gdp_train <- gdp |> 
  filter_index(. ~ "2021 Q4")

gdp_train

# A tsibble: 100 x 3 [1Q]
# Key:       symbol [1]
   symbol            date    price
   <chr>            <qtr>    <dbl>
 1 NGDPRNSAXDCMXQ 1997 Q1 3702398.
 2 NGDPRNSAXDCMXQ 1997 Q2 3896084 
 3 NGDPRNSAXDCMXQ 1997 Q3 3906063 
 4 NGDPRNSAXDCMXQ 1997 Q4 4038358.
 5 NGDPRNSAXDCMXQ 1998 Q1 4084304.
 6 NGDPRNSAXDCMXQ 1998 Q2 4134900.
 7 NGDPRNSAXDCMXQ 1998 Q3 4138200.
 8 NGDPRNSAXDCMXQ 1998 Q4 4146842.
 9 NGDPRNSAXDCMXQ 1999 Q1 4176243.
10 NGDPRNSAXDCMXQ 1999 Q2 4232280.
# ℹ 90 more rows
…
